Create list of required parameters for ProxyErrorSpectrum — GetSpecPars • psem
…
#> $spec.pars$sigma.ind
#> [1] 1.5
#> 
#> $spec.pars$sigma.cal
#> [1] 0.3
#> 
#> $spec.pars$n.nu.prime
#> [1] 1000
#> 
#> $spec.pars$seas.amp
#> [1] 4
#> 
#> 
#> $proxy.error.spec
#> # A tibble: 101 × 12
#>          nu Climate Reference.climate Bioturbation Aliasing.stochastic
#>       <dbl>   <dbl>             <dbl>        <dbl>               <dbl>
#>  1 -0.00495    20.2              13.0         16.8                6.37
#>  2 -0.00485    20.6              13.5         17.0                6.37
#>  3 -0.00475    21.0              14.1         17.3                6.37
#>  4 -0.00465    21.5              14.6         17.8                6.37
#>  5 -0.00455    22.0              15.2         18.5                6.37
#>  6 -0.00446    22.4              15.8         19.3                6.37
#>  7 -0.00436    23.0              16.4         20.3                6.37
#>  8 -0.00426    23.5              17.1         21.4                6.37
#>  9 -0.00416    24.0              17.8         22.6                6.37
#> 10 -0.00406    24.6              18.5         23.9                6.37
#> # ℹ 91 more rows
#> # ℹ 7 more variables: Aliasing.seasonal <dbl>, Seasonal.bias <dbl>,
#> #   Seasonal.bias.unc. <dbl>, Meas.error <dbl>, Individual.variation <dbl>,
#> #   Calibration.unc. <dbl>, Total.error <dbl>
…
